﻿{
  "SystemName": "eshopper-theme",
  "FriendlyName": "eshopper theme",
  "SupportRTL": true,
  "PreviewImageUrl": "~/Themes/eshopper-theme/preview.jpg",
  "PreviewText": "The 'eshopper theme' site theme"
}